<?xml version="1.0" encoding="UTF-8" standalone="no"?>
<!-- Created with Inkscape (http://www.inkscape.org/) -->

<svg
   xmlns:dc="http://purl.org/dc/elements/1.1/"
   xmlns:cc="http://creativecommons.org/ns#"
   xmlns:rdf="http://www.w3.org/1999/02/22-rdf-syntax-ns#"
   xmlns:svg="http://www.w3.org/2000/svg"
   xmlns="http://www.w3.org/2000/svg"
   xmlns:sodipodi="http://sodipodi.sourceforge.net/DTD/sodipodi-0.dtd"
   xmlns:inkscape="http://www.inkscape.org/namespaces/inkscape"
   width="210mm"
   height="297mm"
   viewBox="0 0 744.09448819 1052.3622047"
   id="svg2"
   version="1.1"
   inkscape:version="0.91 r13725"
   sodipodi:docname="clock.svg">
  <defs
     id="defs4" />
  <sodipodi:namedview
     id="base"
     pagecolor="#ffffff"
     bordercolor="#666666"
     borderopacity="1.0"
     inkscape:pageopacity="1"
     inkscape:pageshadow="2"
     inkscape:zoom="2.8284271"
     inkscape:cx="191.87309"
     inkscape:cy="832.3071"
     inkscape:document-units="cm"
     inkscape:current-layer="layer7"
     showgrid="false"
     inkscape:window-width="1920"
     inkscape:window-height="975"
     inkscape:window-x="-8"
     inkscape:window-y="-8"
     inkscape:window-maximized="1"
     showguides="false" />
  <metadata
     id="metadata7">
    <rdf:RDF>
      <cc:Work
         rdf:about="">
        <dc:format>image/svg+xml</dc:format>
        <dc:type
           rdf:resource="http://purl.org/dc/dcmitype/StillImage" />
        <dc:title />
      </cc:Work>
    </rdf:RDF>
  </metadata>
  <g
     inkscape:label="Fondo"
     inkscape:groupmode="layer"
     id="layer1"
     style="display:inline"
     sodipodi:insensitive="true">
    <rect
       style="opacity:1;fill:#ffffff;fill-opacity:1"
       id="rect4143"
       width="744.07098"
       height="1052.371"
       x="0"
       y="-0.0091237212" />
    <rect
       style="opacity:0.597;fill:#bbbbbb;fill-opacity:1"
       id="rect4138"
       width="389.76379"
       height="389.76379"
       x="52.857143"
       y="45.455582" />
  </g>
  <g
     inkscape:groupmode="layer"
     id="layer2"
     inkscape:label="Circulo"
     style="display:inline;opacity:1"
     sodipodi:insensitive="true">
    <circle
       style="opacity:1;fill:#ffffff;fill-opacity:1"
       id="path4141"
       cx="248.03149"
       cy="237.40157"
       r="177.16536" />
  </g>
  <g
     inkscape:groupmode="layer"
     id="layer3"
     inkscape:label="Medidas"
     sodipodi:insensitive="true"
     style="display:inline">
    <path
       style="fill:none;fill-rule:evenodd;stroke:#000000;stroke-width:0.06915169px;stroke-linecap:butt;stroke-linejoin:miter;stroke-opacity:1"
       d="m 70.867715,237.36529 354.327565,0.002"
       id="path4166"
       inkscape:connector-curvature="0" />
    <path
       style="fill:none;fill-rule:evenodd;stroke:#000000;stroke-width:0.06802119px;stroke-linecap:butt;stroke-linejoin:miter;stroke-opacity:1"
       d="m 248.06551,60.235961 0.003,354.330709"
       id="path4168"
       inkscape:connector-curvature="0" />
    <ellipse
       style="opacity:0.597;fill:#ff0000;fill-opacity:1"
       id="path4270"
       cx="77.276672"
       cy="67.46347"
       rx="7.5761442"
       ry="7.0710678" />
    <ellipse
       style="opacity:0.597;fill:#00ff00;fill-opacity:1"
       id="path4272"
       cx="411.13208"
       cy="68.221085"
       rx="8.586297"
       ry="7.8286824" />
    <ellipse
       style="opacity:0.597;fill:#0000ff;fill-opacity:1"
       id="path4274"
       cx="75.508904"
       cy="418.99655"
       rx="7.8286824"
       ry="5.5558391" />
    <ellipse
       style="opacity:0.597;fill:#ffff00;fill-opacity:1"
       id="path4276"
       cx="414.41507"
       cy="415.46103"
       rx="6.3134532"
       ry="6.0609155" />
  </g>
  <g
     inkscape:groupmode="layer"
     id="layer4"
     inkscape:label="Agujeros"
     style="display:inline"
     sodipodi:insensitive="true">
    <circle
       style="opacity:0.597;fill:#000000;fill-opacity:1"
       id="path4170"
       cx="248.03149"
       cy="226.77165"
       r="5.3149605" />
    <circle
       style="display:inline;opacity:0.597;fill:#000000;fill-opacity:1"
       id="path4170-8"
       cx="248.03149"
       cy="248.03149"
       r="5.3149605" />
    <circle
       style="display:inline;opacity:0.597;fill:#000000;fill-opacity:1"
       id="path4170-4"
       cx="248.03149"
       cy="131.10236"
       r="5.3149605" />
    <circle
       style="display:inline;opacity:0.597;fill:#000000;fill-opacity:1"
       id="path4170-48"
       cx="248.03149"
       cy="343.70078"
       r="5.3149605" />
    <circle
       style="opacity:0.597;fill:#000000;fill-opacity:1"
       id="path4244"
       cx="246.25984"
       cy="200.19685"
       r="15.944881" />
    <ellipse
       style="opacity:0.597;fill:#000000;fill-opacity:1"
       id="path4244-8"
       cx="246.25984"
       cy="279.92123"
       rx="15.944881"
       ry="17.716536" />
  </g>
  <g
     inkscape:groupmode="layer"
     id="layer5"
     inkscape:label="Medidas2"
     style="display:none"
     sodipodi:insensitive="true">
    <circle
       style="opacity:1;fill:#00ff00;fill-opacity:1;stroke:none;stroke-width:1.77165353;stroke-linecap:butt;stroke-miterlimit:4;stroke-dasharray:none;stroke-dashoffset:0;stroke-opacity:1"
       id="path4156"
       cx="139.96094"
       cy="196.62387"
       r="0.2" />
    <circle
       style="opacity:1;fill:#00ff00;fill-opacity:1;stroke:none;stroke-width:1.77165353;stroke-linecap:butt;stroke-miterlimit:4;stroke-dasharray:none;stroke-dashoffset:0;stroke-opacity:1"
       id="path4156-5"
       cx="246.26067"
       cy="196.61844"
       r="0.2" />
    <path
       style="fill:none;fill-rule:evenodd;stroke:#000000;stroke-width:0.069631px;stroke-linecap:butt;stroke-linejoin:miter;stroke-opacity:1"
       d="m 139.96063,196.6175 106.29921,0.001"
       id="path4332"
       inkscape:connector-curvature="0" />
    <circle
       style="display:inline;opacity:1;fill:#00ff00;fill-opacity:1;stroke:none;stroke-width:1.77165353;stroke-linecap:butt;stroke-miterlimit:4;stroke-dasharray:none;stroke-dashoffset:0;stroke-opacity:1"
       id="path4156-5-7"
       cx="248.07295"
       cy="237.36639"
       r="0.2" />
    <circle
       style="display:inline;opacity:1;fill:#00ff00;fill-opacity:1;stroke:none;stroke-width:1.77165353;stroke-linecap:butt;stroke-miterlimit:4;stroke-dasharray:none;stroke-dashoffset:0;stroke-opacity:1"
       id="path4156-5-7-4"
       cx="248.06741"
       cy="60.229954"
       r="0.2" />
    <circle
       style="display:inline;opacity:1;fill:#00ff00;fill-opacity:1;stroke:none;stroke-width:1.77165353;stroke-linecap:butt;stroke-miterlimit:4;stroke-dasharray:none;stroke-dashoffset:0;stroke-opacity:1"
       id="path4156-5-0"
       cx="246.25391"
       cy="274.57315"
       r="0.2" />
    <path
       style="fill:none;fill-rule:evenodd;stroke:#000000;stroke-width:0.069631px;stroke-linecap:butt;stroke-linejoin:miter;stroke-opacity:1"
       d="m 139.96063,274.57048 106.29921,0.001"
       id="path4332-4"
       inkscape:connector-curvature="0" />
  </g>
  <g
     inkscape:groupmode="layer"
     id="layer6"
     inkscape:label="Arcos"
     style="display:inline"
     sodipodi:insensitive="true">
    <path
       style="opacity:1;fill:#ffff00;fill-opacity:0.35294118;stroke:none;stroke-width:1.77165353;stroke-linecap:butt;stroke-miterlimit:4;stroke-dasharray:none;stroke-dashoffset:0;stroke-opacity:1"
       id="path4240"
       sodipodi:type="arc"
       sodipodi:cx="-253.35387"
       sodipodi:cy="-200.1954"
       sodipodi:rx="106.30586"
       sodipodi:ry="106.29921"
       sodipodi:start="0"
       sodipodi:end="2.7227136"
       d="m -147.048,-200.1954 a 106.30586,106.29921 0 0 1 -84.20363,103.976312 106.30586,106.29921 0 0 1 -119.21747,-60.740532 l 97.11523,-43.23578 z"
       transform="matrix(-1,-5.6791065e-6,3.835972e-6,-1,0,0)" />
    <path
       style="display:inline;opacity:1;fill:#ffff00;fill-opacity:0.35294118;stroke:none;stroke-width:1.77165353;stroke-linecap:butt;stroke-miterlimit:4;stroke-dasharray:none;stroke-dashoffset:0;stroke-opacity:1"
       id="path4240-6"
       sodipodi:type="arc"
       sodipodi:cx="339.90671"
       sodipodi:cy="149.24931"
       sodipodi:rx="106.30586"
       sodipodi:ry="106.29921"
       sodipodi:start="0"
       sodipodi:end="2.7227136"
       d="M 446.21257,149.24931 A 106.30586,106.29921 0 0 1 362.00894,253.22563 106.30586,106.29921 0 0 1 242.79147,192.4851 l 97.11524,-43.23579 z"
       transform="matrix(0.91353556,0.40675887,-0.40675718,0.91353631,0,0)" />
    <ellipse
       style="display:inline;opacity:1;fill:#00ff00;fill-opacity:0.25740027;stroke:none;stroke-width:1.77165353;stroke-linecap:butt;stroke-miterlimit:4;stroke-dasharray:none;stroke-dashoffset:0;stroke-opacity:1"
       id="path4156-5-5"
       cx="253.35001"
       cy="200.2"
       rx="0.19488189"
       ry="0.2" />
    <ellipse
       style="display:inline;opacity:1;fill:#00ff00;fill-opacity:0.25740027;stroke:none;stroke-width:1.77165353;stroke-linecap:butt;stroke-miterlimit:4;stroke-dasharray:none;stroke-dashoffset:0;stroke-opacity:1"
       id="path4156-5-5-4"
       cx="249.8"
       cy="274.60001"
       rx="0.19488189"
       ry="0.2" />
  </g>
  <g
     inkscape:groupmode="layer"
     id="layer7"
     inkscape:label="Marcas"
     style="display:inline"
     sodipodi:insensitive="true">
    <circle
       style="display:inline;opacity:1;fill:#ff0000;fill-opacity:1;stroke:none;stroke-width:1.77165353;stroke-linecap:butt;stroke-miterlimit:4;stroke-dasharray:none;stroke-dashoffset:0;stroke-opacity:1"
       id="path0-0-8"
       cx="147"
       cy="200"
       r="4" />
    <circle
       style="display:inline;opacity:1;fill:#ff0000;fill-opacity:1;stroke:none;stroke-width:1.77165353;stroke-linecap:butt;stroke-miterlimit:4;stroke-dasharray:none;stroke-dashoffset:0;stroke-opacity:1"
       id="path13-1-8"
       cx="149"
       cy="176"
       r="2" />
    <circle
       style="display:inline;opacity:1;fill:#ff0000;fill-opacity:1;stroke:none;stroke-width:1.77165353;stroke-linecap:butt;stroke-miterlimit:4;stroke-dasharray:none;stroke-dashoffset:0;stroke-opacity:1"
       id="path26-2-8"
       cx="157"
       cy="153"
       r="2" />
    <circle
       style="display:inline;opacity:1;fill:#ff0000;fill-opacity:1;stroke:none;stroke-width:1.77165353;stroke-linecap:butt;stroke-miterlimit:4;stroke-dasharray:none;stroke-dashoffset:0;stroke-opacity:1"
       id="path39-3-8"
       cx="170"
       cy="133"
       r="4" />
    <circle
       style="display:inline;opacity:1;fill:#ff0000;fill-opacity:1;stroke:none;stroke-width:1.77165353;stroke-linecap:butt;stroke-miterlimit:4;stroke-dasharray:none;stroke-dashoffset:0;stroke-opacity:1"
       id="path52-4-8"
       cx="187"
       cy="116"
       r="2" />
    <circle
       style="display:inline;opacity:1;fill:#ff0000;fill-opacity:1;stroke:none;stroke-width:1.77165353;stroke-linecap:butt;stroke-miterlimit:4;stroke-dasharray:none;stroke-dashoffset:0;stroke-opacity:1"
       id="path65-5-8"
       cx="208"
       cy="103"
       r="2" />
    <circle
       style="display:inline;opacity:1;fill:#ff0000;fill-opacity:1;stroke:none;stroke-width:1.77165353;stroke-linecap:butt;stroke-miterlimit:4;stroke-dasharray:none;stroke-dashoffset:0;stroke-opacity:1"
       id="path78-6-8"
       cx="231"
       cy="96"
       r="4" />
    <circle
       style="display:inline;opacity:1;fill:#ff0000;fill-opacity:1;stroke:none;stroke-width:1.77165353;stroke-linecap:butt;stroke-miterlimit:4;stroke-dasharray:none;stroke-dashoffset:0;stroke-opacity:1"
       id="path91-7-8"
       cx="255"
       cy="93"
       r="2" />
    <circle
       style="display:inline;opacity:1;fill:#ff0000;fill-opacity:1;stroke:none;stroke-width:1.77165353;stroke-linecap:butt;stroke-miterlimit:4;stroke-dasharray:none;stroke-dashoffset:0;stroke-opacity:1"
       id="path104-8-8"
       cx="279"
       cy="97"
       r="2" />
    <circle
       style="display:inline;opacity:1;fill:#ff0000;fill-opacity:1;stroke:none;stroke-width:1.77165353;stroke-linecap:butt;stroke-miterlimit:4;stroke-dasharray:none;stroke-dashoffset:0;stroke-opacity:1"
       id="path117-9-8"
       cx="301"
       cy="105"
       r="4" />
    <circle
       style="display:inline;opacity:1;fill:#ff0000;fill-opacity:1;stroke:none;stroke-width:1.77165353;stroke-linecap:butt;stroke-miterlimit:4;stroke-dasharray:none;stroke-dashoffset:0;stroke-opacity:1"
       id="path130-10-8"
       cx="321"
       cy="118"
       r="2" />
    <circle
       style="display:inline;opacity:1;fill:#ff0000;fill-opacity:1;stroke:none;stroke-width:1.77165353;stroke-linecap:butt;stroke-miterlimit:4;stroke-dasharray:none;stroke-dashoffset:0;stroke-opacity:1"
       id="path143-11-8"
       cx="338"
       cy="136"
       r="2" />
    <circle
       style="display:inline;opacity:1;fill:#ff0000;fill-opacity:1;stroke:none;stroke-width:1.77165353;stroke-linecap:butt;stroke-miterlimit:4;stroke-dasharray:none;stroke-dashoffset:0;stroke-opacity:1"
       id="path156-12-8"
       cx="350"
       cy="156"
       r="4" />
    <circle
       style="display:inline;opacity:1;fill:#ff0000;fill-opacity:1;stroke:none;stroke-width:1.77165353;stroke-linecap:butt;stroke-miterlimit:4;stroke-dasharray:none;stroke-dashoffset:0;stroke-opacity:1"
       id="path0-0-9"
       cx="143"
       cy="274"
       r="4" />
    <circle
       style="display:inline;opacity:1;fill:#ff0000;fill-opacity:1;stroke:none;stroke-width:1.77165353;stroke-linecap:butt;stroke-miterlimit:4;stroke-dasharray:none;stroke-dashoffset:0;stroke-opacity:1"
       id="path13-1-9"
       cx="146"
       cy="298"
       r="2" />
    <circle
       style="display:inline;opacity:1;fill:#ff0000;fill-opacity:1;stroke:none;stroke-width:1.77165353;stroke-linecap:butt;stroke-miterlimit:4;stroke-dasharray:none;stroke-dashoffset:0;stroke-opacity:1"
       id="path26-2-9"
       cx="154"
       cy="321"
       r="2" />
    <circle
       style="display:inline;opacity:1;fill:#ff0000;fill-opacity:1;stroke:none;stroke-width:1.77165353;stroke-linecap:butt;stroke-miterlimit:4;stroke-dasharray:none;stroke-dashoffset:0;stroke-opacity:1"
       id="path39-3-9"
       cx="167"
       cy="341"
       r="4" />
    <circle
       style="display:inline;opacity:1;fill:#ff0000;fill-opacity:1;stroke:none;stroke-width:1.77165353;stroke-linecap:butt;stroke-miterlimit:4;stroke-dasharray:none;stroke-dashoffset:0;stroke-opacity:1"
       id="path52-4-9"
       cx="184"
       cy="358"
       r="2" />
    <circle
       style="display:inline;opacity:1;fill:#ff0000;fill-opacity:1;stroke:none;stroke-width:1.77165353;stroke-linecap:butt;stroke-miterlimit:4;stroke-dasharray:none;stroke-dashoffset:0;stroke-opacity:1"
       id="path65-5-9"
       cx="204"
       cy="370"
       r="2" />
    <circle
       style="display:inline;opacity:1;fill:#ff0000;fill-opacity:1;stroke:none;stroke-width:1.77165353;stroke-linecap:butt;stroke-miterlimit:4;stroke-dasharray:none;stroke-dashoffset:0;stroke-opacity:1"
       id="path78-6-9"
       cx="227"
       cy="378"
       r="4" />
    <circle
       style="display:inline;opacity:1;fill:#ff0000;fill-opacity:1;stroke:none;stroke-width:1.77165353;stroke-linecap:butt;stroke-miterlimit:4;stroke-dasharray:none;stroke-dashoffset:0;stroke-opacity:1"
       id="path91-7-9"
       cx="251"
       cy="380"
       r="2" />
    <circle
       style="display:inline;opacity:1;fill:#ff0000;fill-opacity:1;stroke:none;stroke-width:1.77165353;stroke-linecap:butt;stroke-miterlimit:4;stroke-dasharray:none;stroke-dashoffset:0;stroke-opacity:1"
       id="path104-8-9"
       cx="275"
       cy="377"
       r="2" />
    <circle
       style="display:inline;opacity:1;fill:#ff0000;fill-opacity:1;stroke:none;stroke-width:1.77165353;stroke-linecap:butt;stroke-miterlimit:4;stroke-dasharray:none;stroke-dashoffset:0;stroke-opacity:1"
       id="path117-9-9"
       cx="298"
       cy="369"
       r="4" />
    <circle
       style="display:inline;opacity:1;fill:#ff0000;fill-opacity:1;stroke:none;stroke-width:1.77165353;stroke-linecap:butt;stroke-miterlimit:4;stroke-dasharray:none;stroke-dashoffset:0;stroke-opacity:1"
       id="path130-10-9"
       cx="318"
       cy="356"
       r="2" />
    <circle
       style="display:inline;opacity:1;fill:#ff0000;fill-opacity:1;stroke:none;stroke-width:1.77165353;stroke-linecap:butt;stroke-miterlimit:4;stroke-dasharray:none;stroke-dashoffset:0;stroke-opacity:1"
       id="path143-11-9"
       cx="334"
       cy="338"
       r="2" />
    <circle
       style="display:inline;opacity:1;fill:#ff0000;fill-opacity:1;stroke:none;stroke-width:1.77165353;stroke-linecap:butt;stroke-miterlimit:4;stroke-dasharray:none;stroke-dashoffset:0;stroke-opacity:1"
       id="path156-12-9"
       cx="346"
       cy="317"
       r="4" />
  </g>
</svg>
